{
    "fluentMethods": true,
    "clientRootFolder": "",
    "relationships": [
        {
            "relationshipName": "background",
            "otherEntityName": "background",
            "relationshipType": "many-to-one",
            "otherEntityField": "name",
            "otherEntityRelationshipName": "proficiency",
            "otherEntityRelationshipNameUndefined": false
        },
        {
            "relationshipName": "characterClass",
            "otherEntityName": "characterClass",
            "relationshipType": "many-to-one",
            "otherEntityField": "name",
            "otherEntityRelationshipName": "proficiency",
            "otherEntityRelationshipNameUndefined": true
        }
    ],
    "fields": [
        {
            "fieldName": "name",
            "fieldType": "String"
        },
        {
            "fieldName": "description",
            "fieldType": "String"
        }
    ],
    "changelogDate": "20190513072505",
    "dto": "no",
    "searchEngine": false,
    "service": "no",
    "entityTableName": "proficiency",
    "databaseType": "sql",
    "jpaMetamodelFiltering": false,
    "pagination": "no"
}
