{
    "fluentMethods": true,
    "clientRootFolder": "",
    "relationships": [
        {
            "relationshipName": "racialTraits",
            "otherEntityName": "racialTraits",
            "relationshipType": "one-to-many",
            "otherEntityRelationshipName": "race",
            "otherEntityRelationshipNameUndefined": false
        }
    ],
    "fields": [
        {
            "fieldName": "name",
            "fieldType": "String"
        },
        {
            "fieldName": "summary",
            "fieldType": "String"
        },
        {
            "fieldName": "description",
            "fieldType": "String"
        },
        {
            "fieldName": "age",
            "fieldType": "String"
        },
        {
            "fieldName": "alignment",
            "fieldType": "String"
        },
        {
            "fieldName": "size",
            "fieldType": "String"
        },
        {
            "fieldName": "speed",
            "fieldType": "String"
        },
        {
            "fieldName": "languages",
            "fieldType": "String"
        }
    ],
    "changelogDate": "20190509111850",
    "dto": "no",
    "searchEngine": false,
    "service": "no",
    "entityTableName": "race",
    "databaseType": "sql",
    "jpaMetamodelFiltering": false,
    "pagination": "pagination"
}
